<?xml version="1.0" encoding="UTF-8" standalone="no"?>
<svg
   xmlns:dc="http://purl.org/dc/elements/1.1/"
   xmlns:cc="http://creativecommons.org/ns#"
   xmlns:rdf="http://www.w3.org/1999/02/22-rdf-syntax-ns#"
   xmlns:svg="http://www.w3.org/2000/svg"
   xmlns="http://www.w3.org/2000/svg"
   id="svg8"
   version="1.1"
   viewBox="0 0 85.893257 89.391922"
   height="89.391922mm"
   width="85.893257mm">
  <defs
     id="defs2" />
  <metadata
     id="metadata5">
    <rdf:RDF>
      <cc:Work
         rdf:about="">
        <dc:format>image/svg+xml</dc:format>
        <dc:type
           rdf:resource="http://purl.org/dc/dcmitype/StillImage" />
        <dc:title></dc:title>
      </cc:Work>
    </rdf:RDF>
  </metadata>
  <g
     transform="translate(97.235473,-903.88291)"
     id="layer1">
    <g
       style="stroke-width:1.1032784"
       transform="matrix(0.90635878,0,0,0.90642036,-370.69893,381.3879)"
       id="g1196">
      <path
         style="fill:#aaeeff;stroke:#000000;stroke-width:1.69307256;stroke-linecap:butt;stroke-linejoin:miter;stroke-miterlimit:4;stroke-dasharray:none;stroke-opacity:1"
         d="m 363.59494,617.81885 c -4.8629,9.83598 -16.81002,17.88299 -18.96051,15.73558 -2.70903,-2.70514 1.01696,-9.58183 -0.68408,-12.97905 -2.09872,-4.19141 -13.31229,-2.73243 -17.78626,-2.73244 -1.63802,0 -5.96635,0.58804 -7.52495,1.36622 -0.70243,0.35071 -16.07604,13.6832 -16.07604,4.78175 0,-2.40871 0.0628,-4.19271 1.36818,-6.14797 1.46035,-2.18739 3.95946,-5.17516 5.13065,-7.51419 1.07907,-2.15505 2.05275,-4.48284 3.42044,-6.48952 4.20256,-5.97578 -0.32853,-18.963 7.52494,-22.88412 9.5739,-4.78009 26.64887,-4.17305 37.28273,-2.04932 3.25926,0.65093 6.48339,3.06886 9.57721,4.09865 9.57729,3.18786 12.79308,-0.88738 22.91691,3.41553 1.9252,0.81827 4.90549,3.64899 5.81474,5.46487 0.2747,0.54864 -6.35529,7.64074 -7.18293,8.8804 -0.45605,0.56926 -0.9632,1.10121 -1.36816,1.70778 -1.17993,1.76737 0.99605,6.77101 1.71021,8.19729 0.98739,1.97196 0.54654,21.86311 0,24.59188 -3.17787,15.86662 -20.41574,25.81401 -36.25659,21.85947 -3.56713,-0.89051 -7.73905,-3.074 -10.60334,-3.074 -2.85892,2.54053 -4.44657,5.29948 -4.44657,7.85575 0,1.85563 4.85693,10.99806 -0.34204,12.29594 -1.20901,0.30182 -9.00249,-13.82596 -10.2613,-15.71148 -2.44889,-3.66808 -15.58724,-8.83193 -12.6556,-14.68682 2.58004,-5.15271 16.2886,11.63598 24.28507,-0.34155 3.47362,-7.88579 21.19195,-1.74529 21.19195,-19.02599"
         id="path823" />
      <path
         style="fill:#000000;stroke:none;stroke-width:0.29190904px;stroke-linecap:butt;stroke-linejoin:miter;stroke-opacity:1"
         d="m 323.76978,596.66659 c -6.79461,2.84532 4.65732,6.20087 0,0 z"
         id="path825" />
      <path
         style="fill:none;stroke:#000000;stroke-width:1.06466353;stroke-linecap:butt;stroke-linejoin:miter;stroke-miterlimit:4;stroke-dasharray:none;stroke-opacity:1"
         d="m 319.75078,599.14286 c 0.0408,2.28967 5.12029,3.82093 7.01189,2.56166"
         id="path829" />
      <path
         style="fill:none;stroke:#000000;stroke-width:0.95433587;stroke-linecap:butt;stroke-linejoin:miter;stroke-miterlimit:4;stroke-dasharray:none;stroke-opacity:1"
         d="m 323.94082,618.1845 c 6.18773,-0.89023 7.29215,-4.34769 10.09026,-8.53886"
         id="path835" />
      <path
         style="fill:none;stroke:#000000;stroke-width:0.95433587;stroke-linecap:butt;stroke-linejoin:miter;stroke-miterlimit:4;stroke-dasharray:none;stroke-opacity:1"
         d="m 333.68905,606.74244 c -0.0167,2.05691 1.30919,4.13595 3.24941,4.78175"
         id="path837" />
    </g>
  </g>
</svg>
