<?xml version="1.0" encoding="UTF-8" standalone="no"?>
<svg
   xmlns:dc="http://purl.org/dc/elements/1.1/"
   xmlns:cc="http://creativecommons.org/ns#"
   xmlns:rdf="http://www.w3.org/1999/02/22-rdf-syntax-ns#"
   xmlns:svg="http://www.w3.org/2000/svg"
   xmlns="http://www.w3.org/2000/svg"
   id="svg8"
   version="1.1"
   viewBox="0 0 88.455452 99.53347"
   height="99.53347mm"
   width="88.455452mm">
  <defs
     id="defs2" />
  <metadata
     id="metadata5">
    <rdf:RDF>
      <cc:Work
         rdf:about="">
        <dc:format>image/svg+xml</dc:format>
        <dc:type
           rdf:resource="http://purl.org/dc/dcmitype/StillImage" />
        <dc:title></dc:title>
      </cc:Work>
    </rdf:RDF>
  </metadata>
  <g
     transform="translate(-8.1699845,-898.69775)"
     id="layer1">
    <g
       style="stroke-width:1.17356992"
       transform="matrix(0.85197747,0,0,0.85222437,456.59177,498.35708)"
       id="g1500">
      <path
         style="opacity:1;fill:#000000;fill-opacity:1;stroke:#ffffff;stroke-width:1.80094087;stroke-linecap:butt;stroke-linejoin:miter;stroke-miterlimit:1.07493544;stroke-dasharray:none;stroke-dashoffset:0;stroke-opacity:1;paint-order:normal"
         d="m -510.03229,574.29254 c -3.53075,-4.45942 -1.62129,-10.28954 -3.11568,-15.33213 -4.32166,-14.58288 -1.37581,-29.79941 8.30851,-42.05383 4.15376,-5.25618 9.2948,-9.54923 12.4627,-14.89408 7.12104,-12.01449 22.44257,-36.41699 43.74818,-30.4259 3.32605,0.93528 13.45216,10.73894 7.66592,17.62269 -5.78622,6.88375 -14.04083,11.02587 -10.391,17.18381 3.25708,5.4953 0.31192,15.21202 3.73902,27.29642 3.9414,13.89794 13.70464,30.32785 7.68515,37.09853 -11.63524,13.08722 -31.03849,11.82764 -48.81232,11.82764 -8.26281,0 -20.29251,1.64947 -23.36758,-6.13283 -0.59842,-1.51442 -0.25863,-1.69769 2.0771,-2.19032 z"
         id="path1022" />
      <path
         style="opacity:1;fill:#ffffff;fill-opacity:1;stroke:none;stroke-width:0.62101406;stroke-linecap:butt;stroke-linejoin:miter;stroke-miterlimit:1.07493544;stroke-dasharray:none;stroke-dashoffset:0;stroke-opacity:1;paint-order:fill markers stroke"
         d="m -493.37842,522.09194 c -1.8667,10.4341 -7.52742,13.87498 -7.15339,22.40414 0.3896,8.88377 6.96425,17.05608 14.90568,20.59719 8.78737,3.70646 27.61023,2.14496 31.67608,-5.69479 4.06584,-7.83975 9.09299,-10.1548 3.67448,-17.79574 -1.88838,-2.66291 -2.00206,-11.45533 -3.13648,-16.62095 -0.85817,-3.9077 -0.53942,-5.97326 -1.13406,-9.87261 -0.87483,-5.73664 -1.74924,-7.19194 -2.44053,-9.5922 -1.23235,-3.11877 -2.50684,-8.03859 -4.23333,-10.95152 -1.87832,-3.16905 -6.14845,-5.7181 -10.9049,-4.3806 -9.31857,7.90616 -19.38684,21.47298 -21.25355,31.90708 z"
         id="path1024" />
      <path
         style="opacity:1;fill:#000000;fill-opacity:1;stroke:none;stroke-width:0.62101406;stroke-linecap:butt;stroke-linejoin:miter;stroke-miterlimit:1.07493544;stroke-dasharray:none;stroke-dashoffset:0;stroke-opacity:1;paint-order:fill markers stroke"
         d="m -472.77394,503.4362 c 0.57092,0.38531 0.61059,0.49889 1.29818,0.65709 2.27765,0.52401 4.69773,0.91943 6.88048,1.53321 1.30623,0.36732 2.30992,1.32336 3.63494,1.64274 0.99643,0.24016 2.18452,0.50599 3.11568,1.09514 1.94811,1.23256 4.01031,2.15889 5.8419,3.39497 1.27855,0.86289 2.60988,2.57929 4.02442,3.17595 2.58636,1.09091 6.02246,0.13343 7.26992,-1.97127 1.66273,-2.80535 -2.35545,-6.93098 -3.63498,-9.08976 -2.41913,-4.08152 -5.22675,-9.69926 -11.16449,-10.95153 -2.35424,-0.49652 -7.31349,0.94959 -8.43832,2.84739 -0.25546,0.43103 -0.85956,1.29344 -1.428,1.53321 -2.13948,0.90244 -7.19223,0.24141 -8.17866,2.73788 -0.5765,1.45899 -1.46045,2.92269 0.77893,3.39498 z"
         id="path1026" />
      <path
         style="opacity:1;fill:none;fill-opacity:1;stroke:#ffffff;stroke-width:0.93152118;stroke-linecap:butt;stroke-linejoin:miter;stroke-miterlimit:1.07493544;stroke-dasharray:none;stroke-dashoffset:0;stroke-opacity:1;paint-order:fill markers stroke"
         d="m -471.60558,501.57443 c 2.69246,-0.66932 7.56126,-1.62933 10.38561,-0.43805 0.97595,0.41167 1.94331,1.1294 2.85602,1.64272 1.80794,1.01677 2.84913,2.80699 4.67354,3.83305 2.75864,1.55144 3.81854,3.82364 6.10153,5.74954"
         id="path1028" />
      <path
         style="opacity:1;fill:#ffffff;fill-opacity:1;stroke:#000000;stroke-width:0.93152118;stroke-linecap:butt;stroke-linejoin:miter;stroke-miterlimit:1.07493544;stroke-dasharray:none;stroke-dashoffset:0;stroke-opacity:1;paint-order:fill markers stroke"
         d="m -469.11294,484.17838 c -2.8053,-0.58037 -4.29491,2.50008 -5.29524,4.19385 -2.36634,4.0068 1.88177,6.50769 6.14931,6.50769 0.63349,0 1.6829,0.19678 2.22058,-0.14461 6.1754,-3.9212 4.47521,-10.55693 -3.07465,-10.55693 z"
         id="path1030" />
      <path
         style="opacity:1;fill:#ffffff;fill-opacity:1;stroke:none;stroke-width:0.99362254;stroke-linecap:butt;stroke-linejoin:miter;stroke-miterlimit:1.07493544;stroke-dasharray:none;stroke-dashoffset:0;stroke-opacity:1;paint-order:fill markers stroke"
         d="m -454.96171,489.0897 c -1.95408,0.0555 -4.0591,3.27573 -1.69762,4.56217 0.6421,0.34979 4.21085,0.48043 4.86643,0.12329 0.441,-0.24022 0.21837,-0.83707 0.33949,-1.23299 0.73819,-2.41275 -2.0151,-3.04573 -3.5083,-3.45247 z"
         id="path1032" />
      <path
         style="opacity:1;fill:#000000;fill-opacity:1;stroke:#ffffff;stroke-width:1.80094087;stroke-linecap:butt;stroke-linejoin:miter;stroke-miterlimit:1.07493544;stroke-dasharray:none;stroke-dashoffset:0;stroke-opacity:1;paint-order:fill markers stroke"
         d="m -524.83982,569.94312 c -1.04946,-1.77064 -0.8651,-5.88536 2.20313,-5.88536 1.35903,0 3.60111,2.53772 5.50777,0.92927 2.20727,-1.86204 -0.5786,-9.823 3.30469,-11.46096 4.42023,-1.86444 3.70639,7.03966 7.71093,6.19511 2.24779,-0.47405 2.58366,-6.49922 6.24215,-4.95609 5.43614,2.29293 -1.27246,10.43158 1.19336,13.55181 1.02557,1.29778 1.05664,5.96444 1.83594,7.27926 0.99957,1.68648 2.58161,2.88433 3.58004,4.5689 0.446,0.75248 -0.16387,2.61631 -0.73435,3.09756 -12.62729,7.34472 -25.12732,-3.57702 -30.84366,-13.3195 z"
         id="path1018" />
      <path
         style="opacity:1;fill:#000000;fill-opacity:1;stroke:#ffffff;stroke-width:1.80094087;stroke-linecap:butt;stroke-linejoin:miter;stroke-miterlimit:1.07493544;stroke-dasharray:none;stroke-dashoffset:0;stroke-opacity:1;paint-order:fill markers stroke"
         d="m -463.16987,577.44514 c 0.9699,-5.92087 20.42366,-26.94695 24.73829,-24.8366 4.20881,2.05859 -1.59122,8.53051 1.11951,9.85636 2.1687,1.06074 6.70171,0.0884 10.66597,1.11945 3.56231,0.92653 1.60001,4.44623 1.20103,4.83652 -1.69415,1.65727 -4.2836,0.3932 -5.93913,3.64607 -1.65551,3.25287 11.53627,7.70925 7.03615,11.34744 -4.50012,3.63819 -5.71939,-3.10483 -9.64152,-3.99188 -3.92212,-0.88706 -11.99516,0.51928 -15.63729,1.27621 -0.80894,0.19783 -4.81503,3.7818 -8.48398,3.30312 -2.62481,-0.34245 -5.46352,-4.08739 -5.05903,-6.55669 z"
         id="path1020" />
      <path
         style="opacity:1;fill:#000000;fill-opacity:1;stroke:none;stroke-width:0.62101406;stroke-linecap:butt;stroke-linejoin:miter;stroke-miterlimit:1.07493544;stroke-dasharray:none;stroke-dashoffset:0;stroke-opacity:1;paint-order:fill markers stroke"
         d="m -468.80167,487.97628 c -0.72895,0.24779 -1.04623,0.65048 -1.26987,1.21846 -0.6256,1.58893 2.64687,2.04049 3.30168,0.93174 0.53191,-0.90063 -1.11044,-3.19026 -2.03181,-2.1502 z"
         id="path1034" />
      <path
         style="opacity:1;fill:#000000;fill-opacity:1;stroke:none;stroke-width:0.62101406;stroke-linecap:butt;stroke-linejoin:miter;stroke-miterlimit:1.07493544;stroke-dasharray:none;stroke-dashoffset:0;stroke-opacity:1;paint-order:fill markers stroke"
         d="m -452.99278,490.77899 c -0.35301,-0.0243 -0.61208,0.12114 -0.76512,0.4547 -0.30794,0.671 1.0153,1.54608 1.46065,1.06086 0.48654,-0.53003 0.0582,-1.72083 -0.69553,-1.51556 z"
         id="path1036" />
      <path
         style="opacity:1;fill:none;fill-opacity:1;stroke:#ffffff;stroke-width:0.93152118;stroke-linecap:butt;stroke-linejoin:miter;stroke-miterlimit:1.07493544;stroke-dasharray:none;stroke-dashoffset:0;stroke-opacity:1;paint-order:fill markers stroke"
         d="m -471.54736,500.13937 c -0.0452,0.17003 -0.26142,0.92304 -0.0949,1.65123 0.16643,0.72819 0.49612,0.72006 0.66368,0.97753"
         id="path1039" />
      <path
         style="opacity:1;fill:#000000;fill-opacity:1;stroke:#ffffff;stroke-width:0.93152118;stroke-linecap:butt;stroke-linejoin:miter;stroke-miterlimit:1.07493544;stroke-dasharray:none;stroke-dashoffset:0;stroke-opacity:1;paint-order:fill markers stroke"
         d="m -499.72662,530.56986 c -0.23196,2.97612 -0.706,3.20027 1.40169,5.30797 1.54112,1.54112 -1.67928,5.82927 0.39241,5.82927 2.15535,0 2.62528,-0.61336 4.18171,-1.85851 3.85361,-3.0829 2.66457,-10.33812 1.70366,-13.47438 -0.96091,-3.13626 -1.06292,-3.96524 -0.69695,-5.11097"
         id="path1044" />
    </g>
  </g>
</svg>
