<?xml version="1.0" encoding="UTF-8" standalone="no"?>
<svg
   xmlns:dc="http://purl.org/dc/elements/1.1/"
   xmlns:cc="http://creativecommons.org/ns#"
   xmlns:rdf="http://www.w3.org/1999/02/22-rdf-syntax-ns#"
   xmlns:svg="http://www.w3.org/2000/svg"
   xmlns="http://www.w3.org/2000/svg"
   id="svg8"
   version="1.1"
   viewBox="0 0 78.620247 70.17073"
   height="70.170731mm"
   width="78.620247mm">
  <defs
     id="defs2" />
  <metadata
     id="metadata5">
    <rdf:RDF>
      <cc:Work
         rdf:about="">
        <dc:format>image/svg+xml</dc:format>
        <dc:type
           rdf:resource="http://purl.org/dc/dcmitype/StillImage" />
        <dc:title></dc:title>
      </cc:Work>
    </rdf:RDF>
  </metadata>
  <g
     transform="translate(-227.73387,-688.0572)"
     id="layer1">
    <g
       id="g1486">
      <path
         style="opacity:1;vector-effect:none;fill:#50af44;fill-opacity:1;stroke:#000000;stroke-width:1.53458345;stroke-linecap:butt;stroke-linejoin:miter;stroke-miterlimit:4;stroke-dasharray:none;stroke-dashoffset:0;stroke-opacity:1"
         d="m 250.82975,711.88676 c -2.59581,-0.16915 -11.76563,3.17601 -14.72696,5.11435 -4.10414,2.68641 -4.27681,6.77576 -5.5484,9.32102 -0.51281,1.0264 0.63127,3.16201 0,4.10972 -1.10824,1.66371 -1.81661,8.28212 -0.82128,10.27432 1.33044,2.66306 2.54767,5.42653 4.92768,7.80847 0.62586,0.62638 1.64477,2.19258 2.46384,2.46584 4.79994,1.60126 10.03447,3.85264 14.78305,5.7536 3.35007,1.34109 9.13539,0.41096 12.72986,0.41096 14.86837,0 24.3061,-0.90033 35.31507,-11.91816 1.30336,-1.30446 1.53953,-3.28727 2.46383,-4.52071 0.41066,-0.54797 1.4766,-0.56842 1.64257,-1.23291 0.77616,-3.10717 2.44236,-12.37222 0.82128,-15.61696 -1.78338,-3.56963 -11.93547,-9.94404 -12.31921,-11.0962 -2.52852,-7.59174 -8.43213,-17.19701 -17.24689,-20.13764 -2.71169,-0.90462 -4.50925,-1.46297 -8.30896,-2.22871 -0.28105,-0.0566 -2.59504,-0.002 -2.87853,-0.0562 -5.75511,-1.09561 -11.68859,-2.16308 -16.32542,-1.00294 -7.15332,1.78976 -12.39664,5.653 -15.59784,10.9765 -0.57891,0.96273 -0.65548,2.80868 -1.10004,3.86328 -0.3638,0.86302 -1.1179,0.92012 -1.39079,1.84026 -0.80398,2.71105 -1.21145,5.6614 -1.21145,8.80021 0,3.03882 1.11428,7.12563 3.07982,9.09274"
         id="path427" />
      <path
         style="opacity:1;vector-effect:none;fill:none;fill-opacity:1;stroke:#000000;stroke-width:1.53458345;stroke-linecap:butt;stroke-linejoin:miter;stroke-miterlimit:4;stroke-dasharray:none;stroke-dashoffset:0;stroke-opacity:1"
         d="m 262.46665,739.409 c 2.53351,-0.73439 7.77506,-3.27859 11.49793,0.41099"
         id="path429" />
      <path
         style="opacity:1;vector-effect:none;fill:none;fill-opacity:1;stroke:#000000;stroke-width:1.53458345;stroke-linecap:butt;stroke-linejoin:miter;stroke-miterlimit:4;stroke-dasharray:none;stroke-dashoffset:0;stroke-opacity:1"
         d="m 283.81993,737.35417 c 2.89382,-2.6841 4.44884,-4.794 9.85537,-4.10972"
         id="path431" />
      <path
         style="opacity:1;vector-effect:none;fill:none;fill-opacity:1;stroke:#000000;stroke-width:0.79375005;stroke-linecap:butt;stroke-linejoin:miter;stroke-miterlimit:4;stroke-dasharray:none;stroke-dashoffset:0;stroke-opacity:1"
         d="m 267.67597,745.6643 c 0.39087,1.3057 0.89423,2.30489 0.79851,4.14106 -0.0957,1.83616 -0.86461,2.52978 -1.23404,3.26925"
         id="path434" />
      <path
         style="opacity:1;vector-effect:none;fill:none;fill-opacity:1;stroke:#000000;stroke-width:0.79375005;stroke-linecap:butt;stroke-linejoin:miter;stroke-miterlimit:4;stroke-dasharray:none;stroke-dashoffset:0;stroke-opacity:1"
         d="m 289.24965,743.24816 c -0.68986,2.30177 0.49067,4.41161 2.10655,5.41697"
         id="path436" />
      <path
         style="opacity:1;vector-effect:none;fill:none;fill-opacity:1;stroke:#000000;stroke-width:0.79375005;stroke-linecap:butt;stroke-linejoin:miter;stroke-miterlimit:4;stroke-dasharray:none;stroke-dashoffset:0;stroke-opacity:1"
         d="m 276.09661,749.88075 c 0.8132,0.96775 1.8745,2.54272 3.84737,2.54272 1.97287,0 3.13823,-1.75197 3.48439,-3.34185"
         id="path438" />
      <path
         style="opacity:1;vector-effect:none;fill:none;fill-opacity:1;stroke:#000000;stroke-width:0.79375005;stroke-linecap:butt;stroke-linejoin:miter;stroke-miterlimit:4;stroke-dasharray:none;stroke-dashoffset:0;stroke-opacity:1"
         d="m 267.96632,750.0233 c 2.69461,0.47444 5.20303,2.74538 9.5821,1.52843"
         id="path440" />
      <path
         style="opacity:1;vector-effect:none;fill:none;fill-opacity:1;stroke:#000000;stroke-width:0.79375005;stroke-linecap:butt;stroke-linejoin:miter;stroke-miterlimit:4;stroke-dasharray:none;stroke-dashoffset:0;stroke-opacity:1"
         d="m 283.06539,750.75256 c 1.92407,0.80778 6.34565,-2.33118 6.53327,-3.92585"
         id="path442" />
      <path
         style="opacity:1;vector-effect:none;fill:none;fill-opacity:1;stroke:#000000;stroke-width:0.79375005;stroke-linecap:butt;stroke-linejoin:miter;stroke-miterlimit:4;stroke-dasharray:none;stroke-dashoffset:0;stroke-opacity:1"
         d="m 303.81583,739.03694 c -1.21874,1.10224 -2.61246,1.73511 -4.04237,2.28976 -0.24794,0.0993 -0.65107,0.045 -0.90739,0.10912"
         id="path448" />
      <path
         style="opacity:1;vector-effect:none;fill:none;fill-opacity:1;stroke:#000000;stroke-width:0.79375005;stroke-linecap:butt;stroke-linejoin:miter;stroke-miterlimit:4;stroke-dasharray:none;stroke-dashoffset:0;stroke-opacity:1"
         d="m 230.45173,730.68873 c 0.85527,-1.01018 3.29992,-1.23293 4.56836,-1.23293"
         id="path450" />
      <path
         style="opacity:1;vector-effect:none;fill:#00aa44;fill-opacity:1;stroke:#000000;stroke-width:0.79375005;stroke-linecap:butt;stroke-linejoin:miter;stroke-miterlimit:4;stroke-dasharray:none;stroke-dashoffset:0;stroke-opacity:1"
         d="m 279.98774,697.98429 c 1.91203,1.82064 3.6465,3.83418 5.06042,5.95674 0.35848,0.53811 0.57644,1.15816 0.94549,1.7122"
         id="path464" />
      <path
         style="opacity:1;vector-effect:none;fill:none;fill-opacity:1;stroke:#000000;stroke-width:0.79375005;stroke-linecap:butt;stroke-linejoin:miter;stroke-miterlimit:4;stroke-dasharray:none;stroke-dashoffset:0;stroke-opacity:1"
         d="m 234.7481,743.26266 c 0.64818,0.80056 2.16168,4.45999 2.83106,4.79494 0.36846,0.18439 0.82096,0.30183 1.23407,0.50857"
         id="path466" />
      <path
         style="opacity:1;vector-effect:none;fill:none;fill-opacity:1;stroke:#000000;stroke-width:0.79375005;stroke-linecap:butt;stroke-linejoin:miter;stroke-miterlimit:4;stroke-dasharray:none;stroke-dashoffset:0;stroke-opacity:1"
         d="m 245.56424,747.76701 c 1.7368,0.20114 2.74394,2.02934 4.28291,2.54277 0.80292,0.26786 2.71,0.50853 3.6296,0.50853"
         id="path468" />
      <path
         style="opacity:1;vector-effect:none;fill:none;fill-opacity:1;stroke:#000000;stroke-width:0.79375005;stroke-linecap:butt;stroke-linejoin:miter;stroke-miterlimit:4;stroke-dasharray:none;stroke-dashoffset:0;stroke-opacity:1"
         d="m 263.80751,738.81877 c -1.40025,0.48277 -2.81652,-0.46297 -3.67706,-1.32428"
         id="path470" />
      <path
         style="opacity:1;vector-effect:none;fill:none;fill-opacity:1;stroke:#000000;stroke-width:0.79375005;stroke-linecap:butt;stroke-linejoin:miter;stroke-miterlimit:4;stroke-dasharray:none;stroke-dashoffset:0;stroke-opacity:1"
         d="m 263.06871,739.64402 c -1.10669,0.31018 -1.83497,1.458 -2.51511,2.1387"
         id="path472" />
      <path
         style="opacity:1;vector-effect:none;fill:none;fill-opacity:1;stroke:#000000;stroke-width:0.79375005;stroke-linecap:butt;stroke-linejoin:miter;stroke-miterlimit:4;stroke-dasharray:none;stroke-dashoffset:0;stroke-opacity:1"
         d="m 293.35744,732.80899 c 0.89683,0.22006 1.96748,-0.35757 2.72006,-1.11557"
         id="path474" />
      <path
         style="opacity:1;vector-effect:none;fill:none;fill-opacity:1;stroke:#000000;stroke-width:0.79375005;stroke-linecap:butt;stroke-linejoin:miter;stroke-miterlimit:4;stroke-dasharray:none;stroke-dashoffset:0;stroke-opacity:1"
         d="m 293.0633,733.45242 c 0.59785,0.49712 1.54092,0.093 2.1519,0.45987 0.22985,0.13797 0.38582,0.34714 0.61594,0.46235"
         id="path476" />
      <path
         style="opacity:1;vector-effect:none;fill:none;fill-opacity:1;stroke:#000000;stroke-width:0.79375005;stroke-linecap:butt;stroke-linejoin:miter;stroke-miterlimit:4;stroke-dasharray:none;stroke-dashoffset:0;stroke-opacity:1"
         d="m 269.55017,733.3472 c 1.42161,0.49456 2.31683,1.82715 3.59313,2.46582"
         id="path484" />
      <path
         style="opacity:1;vector-effect:none;fill:none;fill-opacity:1;stroke:#000000;stroke-width:0.79375005;stroke-linecap:butt;stroke-linejoin:miter;stroke-miterlimit:4;stroke-dasharray:none;stroke-dashoffset:0;stroke-opacity:1"
         d="m 282.79333,733.75816 c -0.0962,-1.76634 1.32213,-2.97538 2.8745,-3.49328"
         id="path488" />
      <path
         style="opacity:1;vector-effect:none;fill:none;fill-opacity:1;stroke:#000000;stroke-width:0.79375005;stroke-linecap:butt;stroke-linejoin:miter;stroke-miterlimit:4;stroke-dasharray:none;stroke-dashoffset:0;stroke-opacity:1"
         d="m 250.27499,707.8185 c 0.73607,1.33361 1.04779,4.00289 0.57975,4.93971 -0.11182,0.22383 -0.48225,0.9289 -0.53896,1.15585 -0.13394,0.53639 -0.61297,0.94743 -1.05227,1.38703"
         id="path490" />
      <path
         style="opacity:1;vector-effect:none;fill:none;fill-opacity:1;stroke:#000000;stroke-width:0.79375005;stroke-linecap:butt;stroke-linejoin:miter;stroke-miterlimit:4;stroke-dasharray:none;stroke-dashoffset:0;stroke-opacity:1"
         d="m 258.23132,713.47627 c -0.16326,1.86771 -2.57615,6.12649 -4.70173,6.72814"
         id="path492" />
      <path
         style="opacity:1;vector-effect:none;fill:none;fill-opacity:1;stroke:#000000;stroke-width:0.79375005;stroke-linecap:butt;stroke-linejoin:miter;stroke-miterlimit:4;stroke-dasharray:none;stroke-dashoffset:0;stroke-opacity:1"
         d="m 286.86342,710.55112 c 0.39247,1.00379 1.41235,1.63216 2.00193,2.51719 0.28774,0.43204 0.67545,1.23836 1.12923,1.54113 0.42496,0.28355 0.89334,0.54979 1.33459,0.7706 0.37867,0.18947 0.83428,0.25375 1.1806,0.51368"
         id="path494" />
      <path
         style="opacity:1;vector-effect:none;fill:none;fill-opacity:1;stroke:#000000;stroke-width:0.79375005;stroke-linecap:butt;stroke-linejoin:miter;stroke-miterlimit:4;stroke-dasharray:none;stroke-dashoffset:0;stroke-opacity:1"
         d="m 280.92249,711.02073 c 0.0685,0.0515 0.15056,0.0883 0.20532,0.15414 0.30552,0.36692 0.6504,1.23317 0.92395,1.64388 0.34703,0.52099 0.85335,0.88612 1.12927,1.4384 0.19646,0.39321 0.0432,0.37316 0.41063,0.92468"
         id="path496" />
      <path
         style="opacity:1;vector-effect:none;fill:none;fill-opacity:1;stroke:#000000;stroke-width:0.79375005;stroke-linecap:butt;stroke-linejoin:miter;stroke-miterlimit:4;stroke-dasharray:none;stroke-dashoffset:0;stroke-opacity:1"
         d="m 245.94459,715.90985 c -0.88878,-0.0866 -1.64284,0.2313 -2.41253,0.61649 -0.34817,0.17423 -0.7966,0.28286 -1.18058,0.41094 -0.40243,0.13433 -0.80145,0.42673 -1.1806,0.61645 -0.22145,0.11083 -0.3545,0.35719 -0.56462,0.46235 -0.97271,0.48676 -1.73205,1.28724 -2.61782,1.95212 -1.40553,1.05499 -2.22349,1.66562 -3.28513,3.08227 -0.12198,0.1627 -0.34708,0.42556 -0.41067,0.61649 -0.3775,1.13343 -0.038,2.54212 -0.56462,3.59599"
         id="path500" />
      <path
         style="opacity:1;vector-effect:none;fill:none;fill-opacity:1;stroke:#000000;stroke-width:0.79375005;stroke-linecap:butt;stroke-linejoin:miter;stroke-miterlimit:4;stroke-dasharray:none;stroke-dashoffset:0;stroke-opacity:1"
         d="m 231.11363,713.79268 c -0.2942,2.16147 0.76189,6.89462 1.27454,7.04813"
         id="path504" />
      <path
         style="opacity:1;vector-effect:none;fill:#5aaa46;fill-opacity:1;stroke:#000000;stroke-width:0.79375005;stroke-linecap:butt;stroke-linejoin:miter;stroke-miterlimit:4;stroke-dasharray:none;stroke-dashoffset:0;stroke-opacity:1"
         d="m 270.47426,691.60391 c -6.07137,-1.8421 -11.53094,0.30775 -16.87643,0.30775"
         id="path1311" />
      <path
         style="opacity:1;vector-effect:none;fill:#5aaa46;fill-opacity:1;stroke:#000000;stroke-width:0.79375005;stroke-linecap:butt;stroke-linejoin:miter;stroke-miterlimit:4;stroke-dasharray:none;stroke-dashoffset:0;stroke-opacity:1"
         d="m 253.04094,698.18417 c -4.68756,-0.34272 -10.24803,1.26527 -12.1137,4.50534"
         id="path1313" />
      <path
         style="opacity:1;vector-effect:none;fill:#5aaa46;fill-opacity:1;stroke:#000000;stroke-width:0.79375005;stroke-linecap:butt;stroke-linejoin:miter;stroke-miterlimit:4;stroke-dasharray:none;stroke-dashoffset:0;stroke-opacity:1"
         d="m 231.78899,703.26317 c -0.35429,0.2193 -0.21099,0.62451 -0.30199,0.98869 -0.14586,1.1921 -0.06,2.17356 -0.055,3.43293"
         id="path1319" />
      <path
         style="opacity:1;vector-effect:none;fill:#5aaa46;fill-opacity:1;stroke:#000000;stroke-width:0.79375005;stroke-linecap:butt;stroke-linejoin:miter;stroke-miterlimit:4;stroke-dasharray:none;stroke-dashoffset:0;stroke-opacity:1"
         d="m 248.73126,709.36991 c 0.46498,1.0653 0.27178,2.02726 0.27178,2.87411"
         id="path1321" />
      <path
         style="opacity:1;vector-effect:none;fill:#5aaa46;fill-opacity:1;stroke:#000000;stroke-width:0.79375005;stroke-linecap:butt;stroke-linejoin:miter;stroke-miterlimit:4;stroke-dasharray:none;stroke-dashoffset:0;stroke-opacity:1"
         d="m 237.52461,700.63444 c -1.60836,1.61014 -2.5875,3.87854 -3.15471,6.28178 -0.1488,0.63046 -0.76343,0.72093 -0.85945,1.3605 -0.16584,1.10461 -0.26985,4.0083 0.38628,6.12748"
         id="path1323" />
      <path
         style="opacity:1;vector-effect:none;fill:#5aaa46;fill-opacity:1;stroke:#000000;stroke-width:0.79375005;stroke-linecap:butt;stroke-linejoin:miter;stroke-miterlimit:4;stroke-dasharray:none;stroke-dashoffset:0;stroke-opacity:1"
         d="m 247.17822,710.61278 c 0.19305,0.55855 0.11648,1.19435 0.11648,1.78661"
         id="path1325" />
    </g>
  </g>
</svg>
